run,experiment,pair_end,sample_type,Condition,sample_id,sequencer,genetic_background
SRR1174888,PRJNA239183,SINGLE,LV,Adult,GSM1333374,Illumina HiSeq 2000,C57BL/6N
SRR1174889,PRJNA239183,SINGLE,LV,MI,GSM1333375,Illumina HiSeq 2000,C57BL/6N
SRR1028904,PRJNA227375,PAIRED,LV,Adult,GSM1262762,Illumina Genome Analyzer II,C57BL/6J 
SRR1028905,PRJNA227375,PAIRED,LV,Adult,GSM1262763,Illumina Genome Analyzer II,C57BL/6J 
SRR1028906,PRJNA227375,PAIRED,LV,Adult,GSM1262764,Illumina Genome Analyzer II,C57BL/6J 
SRR1028907,PRJNA227375,PAIRED,LV,Adult,GSM1262765,Illumina Genome Analyzer II,C57BL/6J 
SRR1028908,PRJNA227375,PAIRED,LV,MI,GSM1262766,Illumina Genome Analyzer II,C57BL/6J 
SRR1028909,PRJNA227375,PAIRED,LV,MI,GSM1262767,Illumina Genome Analyzer II,C57BL/6J 
SRR1028910,PRJNA227375,PAIRED,LV,MI,GSM1262768,Illumina Genome Analyzer II,C57BL/6J 
SRR1028911,PRJNA227375,PAIRED,LV,MI,GSM1262769,Illumina Genome Analyzer II,C57BL/6J 
SRR1025234,PRJNA226752,PAIRED,heart,Adult,GSM1260022,Illumina HiSeq 2000,C57BL/6J 
SRR1025235,PRJNA226752,PAIRED,heart,Adult,GSM1260023,Illumina HiSeq 2000,C57BL/6J 
SRR964790,PRJNA217955,PAIRED,LV,Adult,GSM1223635,Illumina HiSeq 2000,FvB
SRR964791,PRJNA217955,PAIRED,LV,Adult,GSM1223636,Illumina HiSeq 2000,FvB
SRR964792,PRJNA217955,PAIRED,LV,Adult,GSM1223637,Illumina HiSeq 2000,FvB
SRR964793,PRJNA217955,PAIRED,LV,Neonatal,GSM1223638,Illumina HiSeq 2000,FvB
SRR964794,PRJNA217955,PAIRED,LV,Embryo,GSM1223639,Illumina HiSeq 2000,FvB
SRR964799,PRJNA217955,PAIRED,CM,Adult,GSM1223644,Illumina HiSeq 2000,FvB
SRR964800,PRJNA217955,PAIRED,CM,Adult,GSM1223645,Illumina HiSeq 2000,FvB
SRR964801,PRJNA217955,PAIRED,CM,Neonatal,GSM1223646,Illumina HiSeq 2000,FvB
SRR964802,PRJNA217955,PAIRED,CM,Neonatal,GSM1223647,Illumina HiSeq 2000,FvB
SRR5340223,PRJNA379048,PAIRED,LV,TAC,GSM2535624,Illumina HiSeq 2500,C57BL/6J 
SRR5340224,PRJNA379048,PAIRED,LV,TAC,GSM2535625,Illumina HiSeq 2500,C57BL/6J 
SRR5340229,PRJNA379048,PAIRED,LV,MI,GSM2535630,Illumina HiSeq 2500,C57BL/6J 
SRR5340230,PRJNA379048,PAIRED,LV,MI,GSM2535631,Illumina HiSeq 2500,C57BL/6J 
SRR5009652,PRJNA353028,SINGLE,heart,Embryo,GSM2387392,Illumina Genome Analyzer IIx,C57BL/6
SRR5009653,PRJNA353028,SINGLE,heart,Embryo,GSM2387393,Illumina Genome Analyzer IIx,C57BL/6
SRR5009654,PRJNA353028,SINGLE,heart,Embryo,GSM2387394,Illumina Genome Analyzer IIx,C57BL/6
SRR4044061,PRJNA339478,PAIRED,LV,Neonatal,GSM2284992,Illumina Genome Analyzer,C57BL/6
SRR4044062,PRJNA339478,PAIRED,LV,Neonatal,GSM2284993,Illumina Genome Analyzer,C57BL/6
SRR4044063,PRJNA339478,PAIRED,LV,Neonatal,GSM2284994,Illumina Genome Analyzer,C57BL/6
SRR4044064,PRJNA339478,PAIRED,LV,Neonatal,GSM2284995,Illumina Genome Analyzer,C57BL/6
SRR4044065,PRJNA339478,PAIRED,LV,Neonatal,GSM2284996,Illumina Genome Analyzer,C57BL/6
SRR4044066,PRJNA339478,PAIRED,LV,Neonatal,GSM2284997,Illumina Genome Analyzer,C57BL/6
SRR4044067,PRJNA339478,PAIRED,LV,Neonatal,GSM2284998,Illumina Genome Analyzer,C57BL/6
SRR4044068,PRJNA339478,PAIRED,LV,Neonatal,GSM2284999,Illumina Genome Analyzer,C57BL/6
SRR4044069,PRJNA339478,PAIRED,LV,Neonatal,GSM2285000,Illumina Genome Analyzer,C57BL/6
SRR3337048,PRJNA317318,PAIRED,CM,Embryo,GSM2107827,Illumina HiSeq 2000,C57BL/6J
SRR3337049,PRJNA317318,PAIRED,CM,Embryo,GSM2107828,Illumina HiSeq 2000,C57BL/6J
SRR3337050,PRJNA317318,PAIRED,CM,Neonatal,GSM2107829,Illumina HiSeq 2000,C57BL/6J
SRR3337051,PRJNA317318,PAIRED,CM,Neonatal,GSM2107830,Illumina HiSeq 2000,C57BL/6J
SRR3337052,PRJNA317318,PAIRED,CM,Adult,GSM2107831,Illumina HiSeq 2000,C57BL/6J
SRR3337053,PRJNA317318,PAIRED,CM,Adult,GSM2107832,Illumina HiSeq 2000,C57BL/6J
SRR3337054,PRJNA317318,PAIRED,CM,TAC,GSM2107833,Illumina HiSeq 2000,C57BL/6J
SRR3337055,PRJNA317318,PAIRED,CM,TAC,GSM2107834,Illumina HiSeq 2000,C57BL/6J
SRR3337056,PRJNA317318,PAIRED,CM,Adult,GSM2107835,NextSeq 500,C57BL/6J
SRR3337057,PRJNA317318,PAIRED,CM,Adult,GSM2107836,NextSeq 500,C57BL/6J
SRR3038244,PRJNA306654,PAIRED,V,Adult,GSM1976927,Illumina HiSeq 1500,C57BL/6J
SRR2988653,PRJNA305657,SINGLE,heart,Embryo,GSM1970083,Illumina HiSeq 2000,mixed 129S6 and C57BL/6J
SRR2988656,PRJNA305657,SINGLE,heart,Embryo,GSM1970086,Illumina HiSeq 2000,mixed 129S6 and C57BL/6J
SRR2988658,PRJNA305657,SINGLE,heart,Embryo,GSM1970088,Illumina HiSeq 2000,mixed 129S6 and C57BL/6J
SRR2988659,PRJNA305657,SINGLE,heart,Embryo,GSM1970089,Illumina HiSeq 2000,mixed 129S6 and C57BL/6J
SRR2988663,PRJNA305657,SINGLE,V,Adult,GSM1970093,Illumina HiSeq 2000,mixed 129S6 and C57BL/6J
SRR2988664,PRJNA305657,SINGLE,V,Adult,GSM1970094,Illumina HiSeq 2000,mixed 129S6 and C57BL/6J
SRR2988667,PRJNA305657,SINGLE,V,Adult,GSM1970097,Illumina HiSeq 2000,mixed 129S6 and C57BL/6J
SRR2988668,PRJNA305657,SINGLE,V,Adult,GSM1970098,Illumina HiSeq 2000,mixed 129S6 and C57BL/6J
SRR2988669,PRJNA305657,SINGLE,V,Adult,GSM1970099,Illumina HiSeq 2000,mixed 129S6 and C57BL/6J
SRR2988670,PRJNA305657,SINGLE,V,Adult,GSM1970100,Illumina HiSeq 2000,mixed 129S6 and C57BL/6J
SRR2567853,PRJNA297895,SINGLE,V,Adult,GSM1902675,Illumina HiSeq 1000,C57BL/6J
SRR2567865,PRJNA297895,SINGLE,V,Adult,GSM1902687,Illumina HiSeq 1000,C57BL/6J
MI7d1083,MI7d,PAIRED,LV,MI,MI7d1083,,C57BL/6J
MI7d83,MI7d,PAIRED,LV,MI,MI7d83,,C57BL/6J
WT7d1173,MI7d,PAIRED,LV,Adult,WT7d1173,,C57BL/6J
WT7d1219,MI7d,PAIRED,LV,Adult,WT7d1219,,C57BL/6J
SRR2931616,PRJNA302806,PAIRED,LV,Adult,GSM1945745,Illumina HiSeq 2000,
SRR2931617,PRJNA302806,PAIRED,LV,TAC,GSM1945746,Illumina HiSeq 2000,
SRR2931618,PRJNA302806,PAIRED,LV,TAC,GSM1945747,Illumina HiSeq 2000,
SRR2931619,PRJNA302806,PAIRED,LV,TAC,GSM1945748,Illumina HiSeq 2000,
SRR212431,PRJNA141559,PAIRED,LV,TAC,GSM728908,Illumina Genome Analyzer II,C57BL/6
SRR212432,PRJNA141559,PAIRED,LV,Adult,GSM728909,Illumina Genome Analyzer II,C57BL/6
SRR212433,PRJNA141559,PAIRED,LV,Adult,GSM728909,Illumina Genome Analyzer II,C57BL/6
SRR212434,PRJNA141559,PAIRED,LV,TAC,GSM728910,Illumina Genome Analyzer II,C57BL/6
SRR212435,PRJNA141559,PAIRED,LV,TAC,GSM728910,Illumina Genome Analyzer II,C57BL/6
SRR212436,PRJNA141559,PAIRED,LV,TAC,GSM728910,Illumina Genome Analyzer II,C57BL/6
SRR212437,PRJNA141559,PAIRED,LV,Adult,GSM728911,Illumina Genome Analyzer II,C57BL/6
SRR212438,PRJNA141559,PAIRED,LV,Adult,GSM728911,Illumina Genome Analyzer II,C57BL/6
SRR212439,PRJNA141559,PAIRED,LV,Adult,GSM728911,Illumina Genome Analyzer II,C57BL/6
SRR1852470,PRJNA277489,PAIRED,heart,Adult,GSM1626637,Illumina HiSeq 2500,C57BL6
SRR1852471,PRJNA277489,PAIRED,heart,Adult,GSM1626638,Illumina HiSeq 2500,C57BL6
SRR1852472,PRJNA277489,PAIRED,heart,Adult,GSM1626639,Illumina HiSeq 2500,C57BL6
SRR1852473,PRJNA277489,PAIRED,heart,Adult,GSM1626640,Illumina HiSeq 2500,C57BL6
SRR1852474,PRJNA277489,PAIRED,heart,TAC,GSM1626641,Illumina HiSeq 2500,C57BL6
SRR1852475,PRJNA277489,PAIRED,heart,TAC,GSM1626642,Illumina HiSeq 2500,C57BL6
SRR1852476,PRJNA277489,PAIRED,heart,TAC,GSM1626643,Illumina HiSeq 2500,C57BL6
SRR1852477,PRJNA277489,PAIRED,heart,TAC,GSM1626644,Illumina HiSeq 2500,C57BL6
SRR1852486,PRJNA277489,PAIRED,heart,Adult,GSM1626653,Illumina HiSeq 2500,C57BL6
SRR1852487,PRJNA277489,PAIRED,heart,Adult,GSM1626654,Illumina HiSeq 2500,C57BL6
SRR1852488,PRJNA277489,PAIRED,heart,Adult,GSM1626655,Illumina HiSeq 2500,C57BL6
SRR1852489,PRJNA277489,PAIRED,heart,TAC,GSM1626656,Illumina HiSeq 2500,C57BL6
SRR1852490,PRJNA277489,PAIRED,heart,TAC,GSM1626657,Illumina HiSeq 2500,C57BL6
SRR1852491,PRJNA277489,PAIRED,heart,TAC,GSM1626658,Illumina HiSeq 2500,C57BL6
SRR1852492,PRJNA277489,PAIRED,heart,TAC,GSM1626659,Illumina HiSeq 2500,C57BL6
SRR1852493,PRJNA277489,PAIRED,heart,TAC,GSM1626660,Illumina HiSeq 2500,C57BL6
SRR1852502,PRJNA277489,PAIRED,heart,Adult,GSM1626669,Illumina HiSeq 2500,C57BL6
SRR1852503,PRJNA277489,PAIRED,heart,Adult,GSM1626670,Illumina HiSeq 2500,C57BL6
SRR1852504,PRJNA277489,PAIRED,heart,Adult,GSM1626671,Illumina HiSeq 2500,C57BL6
SRR1852505,PRJNA277489,PAIRED,heart,Adult,GSM1626672,Illumina HiSeq 2500,C57BL6
SRR1852506,PRJNA277489,PAIRED,heart,TAC,GSM1626673,Illumina HiSeq 2500,C57BL6
SRR1852507,PRJNA277489,PAIRED,heart,TAC,GSM1626674,Illumina HiSeq 2500,C57BL6
SRR1852508,PRJNA277489,PAIRED,heart,TAC,GSM1626675,Illumina HiSeq 2500,C57BL6
SRR1852509,PRJNA277489,PAIRED,heart,TAC,GSM1626676,Illumina HiSeq 2500,C57BL6
SRR1852518,PRJNA277489,PAIRED,heart,Adult,GSM1626685,Illumina HiSeq 2500,C57BL6
SRR1852519,PRJNA277489,PAIRED,heart,Adult,GSM1626686,Illumina HiSeq 2500,C57BL6
SRR1852520,PRJNA277489,PAIRED,heart,Adult,GSM1626687,Illumina HiSeq 2500,C57BL6
SRR1852521,PRJNA277489,PAIRED,heart,Adult,GSM1626688,Illumina HiSeq 2500,C57BL6
SRR1852522,PRJNA277489,PAIRED,heart,TAC,GSM1626689,Illumina HiSeq 2500,C57BL6
SRR1852523,PRJNA277489,PAIRED,heart,TAC,GSM1626690,Illumina HiSeq 2500,C57BL6
SRR1852524,PRJNA277489,PAIRED,heart,TAC,GSM1626691,Illumina HiSeq 2500,C57BL6
SRR1852525,PRJNA277489,PAIRED,heart,TAC,GSM1626692,Illumina HiSeq 2500,C57BL6
SRR1391033,PRJNA252674,SINGLE,heart,Embryo,GSM1411950,Illumina HiSeq 2000,C57BL/6J
SRR1391034,PRJNA252674,SINGLE,heart,Embryo,GSM1411951,Illumina HiSeq 2000,C57BL/6J
SRR1391035,PRJNA252674,SINGLE,heart,Embryo,GSM1411952,Illumina HiSeq 2000,C57BL/6J
SRR1391036,PRJNA252674,SINGLE,heart,Embryo,GSM1411953,Illumina HiSeq 2000,C57BL/6J
SRR1391037,PRJNA252674,SINGLE,heart,Embryo,GSM1411954,Illumina HiSeq 2000,C57BL/6J
SRR1391038,PRJNA252674,SINGLE,heart,Embryo,GSM1411955,Illumina HiSeq 2000,C57BL/6J
SRR1391039,PRJNA252674,SINGLE,heart,Embryo,GSM1411956,Illumina HiSeq 2000,C57BL/6J
SRR1391052,PRJNA252674,SINGLE,heart,Adult,GSM1411969,Illumina HiSeq 2000,C57BL/6J
SRR1391053,PRJNA252674,SINGLE,heart,Adult,GSM1411970,Illumina HiSeq 2000,C57BL/6J
SRR1391054,PRJNA252674,SINGLE,heart,Adult,GSM1411971,Illumina HiSeq 2000,C57BL/6J
SRR1391055,PRJNA252674,SINGLE,heart,Adult,GSM1411972,Illumina HiSeq 2000,C57BL/6J
SRR1391056,PRJNA252674,SINGLE,heart,TAC,GSM1411973,Illumina HiSeq 2000,C57BL/6J
SRR1391057,PRJNA252674,SINGLE,heart,TAC,GSM1411974,Illumina HiSeq 2000,C57BL/6J
SRR1391058,PRJNA252674,SINGLE,heart,TAC,GSM1411975,Illumina HiSeq 2000,C57BL/6J
SRR1391059,PRJNA252674,SINGLE,heart,TAC,GSM1411976,Illumina HiSeq 2000,C57BL/6J
SRR1177132,PRJNA239462,SINGLE,heart,Embryo,GSM1335300,Illumina HiSeq 2500,C57BL/6
SRR1177136,PRJNA239462,SINGLE,heart,Embryo,GSM1335304,Illumina HiSeq 2500,C57BL/6
SRR1177137,PRJNA239462,SINGLE,heart,Embryo,GSM1335305,Illumina HiSeq 2500,C57BL/6
SRR1727311,PRJNA270875,SINGLE,heart,Adult,GSM1570166,Illumina Genome Analyzer IIx,C57BL/6
SRR1727313,PRJNA270875,SINGLE,heart,Adult,GSM1570168,Illumina Genome Analyzer IIx,C57BL/6
SRR1727316,PRJNA270875,SINGLE,heart,Adult,GSM1570171,Illumina Genome Analyzer IIx,C57BL/6
SRR2058065,PRJNA286287,PAIRED,heart,Neonatal,GSM1707908,Illumina HiSeq 2500,ICR
SRR2058066,PRJNA286287,PAIRED,heart,Neonatal,GSM1707909,Illumina HiSeq 2500,ICR
SRR1727922,PRJNA270897,PAIRED,V,Neonatal,GSM1570710,Illumina HiSeq 2000,CD-1
SRR1727923,PRJNA270897,PAIRED,V,Neonatal,GSM1570711,Illumina HiSeq 2000,CD-1
SRR1727928,PRJNA270897,PAIRED,V,Neonatal,GSM1570716,Illumina HiSeq 2000,CD-1
SRR1727929,PRJNA270897,PAIRED,V,Neonatal,GSM1570717,Illumina HiSeq 2000,CD-1
