SampleID	Value	QC	Rcolor	Order	Group	Subgroup
AbdominalFat	8.93	OK,OK,OK,B1,S@6.43,65.57	153	42	Tissues	Abdominal_Fat
BMDMacroph	3.5	VLOW,VLOW,VLOW,Bn,S@0.49,13.51	541	58	Immune_hematopoiesis	BMD_Macrophages
Brain_Fem	15.25	SOK,SOK,SOK,OK,S@59.63,331.37	29	27	Neural	Whole_Brain
Brain_Male	17.69	SOK,SOK,SOK,OK,S@42.99,200.01	29	28	Neural	Whole_Brain
Bursa_Fem	2.27	OK,OK,OK,Bn,S@1.45,62.55	541	53	Immune_hematopoiesis	Bursa
Bursa_Male	1.16	OK,OK,OK,Bn,S@0.48,40.52	541	54	Immune_hematopoiesis	Bursa
Cerebellum	19.63	VLOW,VLOW,VLOW,OK,S@2.94,12.06	29	30	Neural	Cerebellum
CL_DF1	32.04	N,N,N,Bn,S@1.28,2.72	500	59	CLines	CL_DF1
CL_DT40_a		N,N,N,Bn,S@0,0	500	60	CLines	CL_DT40
CL_DT40_b		N,N,N,Bn,S@0,0	500	61	CLines	CL_DT40
Colon	0	OK,OK,OK,Bn,S@0.00,76.00	623	40	Digestive_tract	Colon
Embr_Blastoderm_Fem	0	OK,OK,OK,Bn,S@0.00,92.00	137	4	EarlyDev	Blastoderm
Embr_Blastoderm_Male	2.41	SOK,SOK,SOK,OK,S@2.51,101.49	137	5	EarlyDev	Blastoderm
Embr_HH11_a	1.13	OK,OK,OK,OK,S@0.98,86.02	56	9	MidDev	HH11
Embr_HH11_b	0	SOK,SOK,SOK,Bn,C1@0.00,294.00	56	10	MidDev	HH11
Embr_HH14_a	0.97	OK,SOK,OK,Bn,S@0.95,97.05	56	11	MidDev	HH14
Embr_HH14_b	0	OK,OK,OK,Bn,S@0.00,66.00	56	12	MidDev	HH14
Embr_HH16	1.01	OK,OK,OK,Bn,S@0.95,93.05	56	13	MidDev	HH16
Embr_HH19	1.08	OK,OK,OK,OK,S@0.98,90.02	56	14	MidDev	HH19
Embr_HH21_22	1.16	OK,OK,OK,OK,S@0.99,84.01	56	15	MidDev	HH21_22
Embr_HH25_26	0.83	OK,OK,OK,Bn,S@0.51,60.49	56	16	MidDev	HH25_26
Embr_HH28	1.93	OK,OK,OK,Bn,S@0.97,49.04	56	17	MidDev	HH28
Embr_HH30_31	1.94	SOK,SOK,SOK,OK,S@1.98,100.02	56	18	MidDev	HH30_31
Embr_HH32	6.05	OK,OK,OK,OK,S@3.63,56.37	56	19	MidDev	HH32
Embr_HH36	13	OK,OK,OK,OK,S@12.22,81.78	56	20	MidDev	HH36
Embr_HH38	5.68	SOK,SOK,SOK,OK,S@5.68,94.32	56	21	MidDev	HH38
Embr_HH4	0	SOK,SOK,SOK,Bn,S@0.00,205.00	137	7	EarlyDev	HH4
Embr_HH6	0	OK,OK,OK,Bn,S@0.00,67.00	137	8	EarlyDev	HH6
Embr_PrimStreak	0	OK,OK,OK,Bn,S@0.00,31.00	137	6	EarlyDev	Primitive_Streak
Embr_Scales	1.29	SOK,SOK,SOK,B1,S@1.95,149.05	649	24	EmbrScales	Embr_Scales
Embr_StageX_a	0.59	SOK,SOK,SOK,Bn,C1@0.96,161.04	137	1	EarlyDev	StageX
Embr_StageX_b	0.32	SOK,SOK,SOK,Bn,C1@0.51,157.49	137	2	EarlyDev	StageX
Embr_StageX_c	1.13	SOK,SOK,SOK,B1,S@2.00,175.00	137	3	EarlyDev	StageX
Fetal_FemGonads	0	SOK,SOK,SOK,Bn,S@0.00,206.00	497	22	EmbrGonads	Fetal_Fem_Gonads
Fetal_MaleGonads	0.3	SOK,SOK,SOK,OK,S@0.96,319.04	497	23	EmbrGonads	Fetal_Male_Gonads
Heart_a	0	N,N,N,Bn,S@0.00,3.00	81	31	Muscle	Heart
Heart_Fem	41.79	OK,OK,OK,OK,S@23.82,33.18	81	32	Muscle	Heart
Heart_Male	61.22	VLOW,VLOW,VLOW,OK,S@20.81,13.19	81	33	Muscle	Heart
Kidney_a	0	OK,OK,OK,Bn,S@0.00,40.00	153	43	Tissues	Kidney
Kidney_Fem	0.65	SOK,SOK,SOK,OK,S@1.46,222.54	153	44	Tissues	Kidney
Kidney_Male	0	SOK,SOK,SOK,Bn,S@0.00,214.00	153	45	Tissues	Kidney
Liver_a	0	OK,OK,OK,Bn,S@0.00,94.00	153	46	Tissues	Liver
Liver_Fem	0	OK,OK,OK,Bn,S@0.00,72.00	153	47	Tissues	Liver
Liver_Male	0.53	OK,OK,OK,Bn,S@0.50,93.50	153	48	Tissues	Liver
Lung_a	4.11	OK,OK,OK,OK,S@3.04,70.96	153	49	Tissues	Lung
Lung_Fem	1	SOK,SOK,SOK,B1,S@3.40,336.60	153	50	Tissues	Lung
Lung_Male	0.87	SOK,SOK,SOK,OK,S@2.90,330.10	153	51	Tissues	Lung
Magnum	0	SOK,SOK,SOK,Bn,S@0.00,201.00	153	41	Tissues	Magnum
Muscle_a	100	N,N,N,Bn,S@3.00,0.00	81	34	Muscle	Muscle
Muscle_Fem	35.02	SOK,SOK,SOK,B1,S@47.63,88.37	81	35	Muscle	Muscle
Muscle_Male	25.62	SOK,SOK,SOK,OK,S@32.02,92.98	81	36	Muscle	Muscle
NeuralCrest	0	N,N,N,Bn,S@0,0	114	25	NeuralCrest	Neural_Crest
Ovarium	1.01	SOK,SOK,SOK,OK,S@2.91,285.09	116	39	Ovary	Ovarium
Spleen_a	3.33	OK,OK,OK,Bn,S@1.03,29.97	541	55	Immune_hematopoiesis	Spleen
Spleen_Fem	3.05	OK,OK,OK,Bn,S@1.46,46.54	541	56	Immune_hematopoiesis	Spleen
Spleen_Male	0	OK,OK,OK,Bn,S@0.00,36.00	541	57	Immune_hematopoiesis	Spleen
Telencephalon	21.69	SOK,SOK,SOK,OK,S@31.67,114.33	29	29	Neural	Telencephalon
Testis_a	0	VLOW,VLOW,VLOW,Bn,S@0.00,14.00	148	37	Testis	Testis
Testis_b	0.11	SOK,SOK,SOK,Bn,S@0.48,439.52	148	38	Testis	Testis
Tibial_bone	2.4	SOK,SOK,SOK,OK,S@17.86,726.14	541	52	Immune_hematopoiesis	Tibial_bone
Whole_Brain	20.9	SOK,SOK,SOK,OK,S@24.87,94.13	29	26	Neural	Whole_Brain
